Workshop 2: Pivoting, joining, tidying, data visualisation
…
library(tidyverse)
library(readxl)

roll <- read_csv("http://www.massey.ac.nz/~jcmarsha/data/schools/roll.csv")
schools <- read_csv("http://www.massey.ac.nz/~jcmarsha/data/schools/schools.csv")

clean <- roll |> mutate(Level = as.numeric(substring(Level, 6)))
clean

## # A tibble: 66,261 × 4
##    School                  EthnicGroup Level Students
##    <chr>                   <chr>       <dbl>    <dbl>
##  1 3H School International Asian          10        1
##  2 3H School International Asian           7        2
##  3 3H School International European        7        1
##  4 3H School International Pacific         9        1
##  5 3H School International Asian           9        1
##  6 A1 Student Limited      European       10        1
##  7 A1 Student Limited      European       11        1
##  8 A1 Student Limited      European        4        2
##  9 A1 Student Limited      Asian           5        1
## 10 A1 Student Limited      European        5        2
## # ℹ 66,251 more rows
…
Try altering the above plot so that it uses a different y-axis for
each plot. This can be useful when there’s differing numbers of students
in each group. Hint: see the help for facet_wrap.

Redo the plot without the International fee paying students. You
might want to see how you can set the number of rows and columns as
well.

Looking at the schools data

Start by taking a look at the schools data:

schools

## # A tibble: 2,534 × 12
##    School        Sector Type  Authority SchoolGender AffiliationType Affiliation
##    <chr>         <chr>  <chr> <chr>     <chr>        <chr>           <chr>      
##  1 3H School In… Compo… Comp… Private:… Co-Ed        No Affiliation  Not Applic…
##  2 A1 Student L… Compo… Comp… Private:… Co-Ed        No Affiliation  Not Applic…
##  3 ACG Parnell … Compo… Comp… Private:… Co-Ed        No Affiliation  Not Applic…
##  4 ACG Strathal… Compo… Comp… Private:… Co-Ed        No Affiliation  Not Applic…
##  5 ACG Sunderla… Compo… Comp… Private:… Co-Ed        No Affiliation  Not Applic…
##  6 ACG Tauranga  Compo… Comp… Private:… Co-Ed        No Affiliation  Not Applic…
##  7 ADDI Enrichm… Compo… Comp… Private:… Co-Ed        No Affiliation  Not Applic…
##  8 AGE School    Compo… Comp… Private:… Co-Ed        No Affiliation  Not Applic…
##  9 Abbotsford S… Prima… Full… State: N… Co-Ed        No Affiliation  Not Applic…
## 10 Aberdeen Sch… Prima… Cont… State: N… Co-Ed        No Affiliation  Not Applic…
## # ℹ 2,524 more rows
## # ℹ 5 more variables: MāoriAffiliation <chr>, RegionalCouncil <chr>,
## #   TerritorialAuthority <chr>, Takiwa <chr>, EQI <dbl>
…
The following will do this:

all_data <- clean |> left_join(schools)

## Joining with `by = join_by(School)`

all_data

## # A tibble: 66,261 × 15
##    School         EthnicGroup Level Students Sector Type  Authority SchoolGender
##    <chr>          <chr>       <dbl>    <dbl> <chr>  <chr> <chr>     <chr>       
##  1 3H School Int… Asian          10        1 Compo… Comp… Private:… Co-Ed       
##  2 3H School Int… Asian           7        2 Compo… Comp… Private:… Co-Ed       
##  3 3H School Int… European        7        1 Compo… Comp… Private:… Co-Ed       
##  4 3H School Int… Pacific         9        1 Compo… Comp… Private:… Co-Ed       
##  5 3H School Int… Asian           9        1 Compo… Comp… Private:… Co-Ed       
##  6 A1 Student Li… European       10        1 Compo… Comp… Private:… Co-Ed       
##  7 A1 Student Li… European       11        1 Compo… Comp… Private:… Co-Ed       
##  8 A1 Student Li… European        4        2 Compo… Comp… Private:… Co-Ed       
##  9 A1 Student Li… Asian           5        1 Compo… Comp… Private:… Co-Ed       
## 10 A1 Student Li… European        5        2 Compo… Comp… Private:… Co-Ed       
## # ℹ 66,251 more rows
## # ℹ 7 more variables: AffiliationType <chr>, Affiliation <chr>,
## #   MāoriAffiliation <chr>, RegionalCouncil <chr>, TerritorialAuthority <chr>,
## #   Takiwa <chr>, EQI <dbl>
…
ethnicity_by_takiwa <- all_data |>
  group_by(Takiwa, EthnicGroup) |>
  summarise(Students = sum(Students))

## `summarise()` has regrouped the output.
## ℹ Summaries were computed grouped by Takiwa and EthnicGroup.
## ℹ Output is grouped by Takiwa.
## ℹ Use `summarise(.groups = "drop_last")` to silence this message.
## ℹ Use `summarise(.by = c(Takiwa, EthnicGroup))` for per-operation grouping
##   (`?dplyr::dplyr_by`) instead.

ethnicity_by_takiwa

## # A tibble: 21 × 3
## # Groups:   Takiwa [3]
##    Takiwa       EthnicGroup              Students
##    <chr>        <chr>                       <dbl>
##  1 Te Tai Raro  Asian                       84332
##  2 Te Tai Raro  European                   100770
##  3 Te Tai Raro  International fee paying     3130
##  4 Te Tai Raro  MELAA                       11391
##  5 Te Tai Raro  Māori                       62260
##  6 Te Tai Raro  Other                        2272
##  7 Te Tai Raro  Pacific                     56733
##  8 Te Tai Runga Asian                       34371
##  9 Te Tai Runga European                   158433
## 10 Te Tai Runga International fee paying     1816
## # ℹ 11 more rows
…
imm

## # A tibble: 158 × 23
##    `Milestone age`    `DHB of residence` `# Eligible...3` # Fully immunised...…¹
##    <chr>              <chr>              <chr>                             <dbl>
##  1 All Milstone Cove… <NA>               101628                            81517
##  2 6 months           National Total     15151                             11004
##  3 6 months           Auckland           1274                                994
##  4 6 months           Bay of Plenty      834                                 539
##  5 6 months           Canterbury         1673                               1400
##  6 6 months           Capital and Coast  821                                 647
##  7 6 months           Counties Manukau   2111                               1438
##  8 6 months           Hawke's Bay        534                                 358
##  9 6 months           Hutt Valley        547                                 444
## 10 6 months           Lakes              398                                 251
## # ℹ 148 more rows
## # ℹ abbreviated name: ¹​`# Fully immunised...4`
## # ℹ 19 more variables: `% Fully immunised...5` <dbl>, `# Eligible...6` <dbl>,
## #   `# Fully immunised...7` <dbl>, `% Fully immunised...8` <dbl>,
## #   `# Eligible...9` <dbl>, `# Fully immunised...10` <dbl>,
## #   `% Fully immunised...11` <dbl>, `# Eligible...12` <chr>,
## #   `# Fully immunised...13` <chr>, `% Fully immunised...14` <chr>, …

Ok, this is getting somewhere. We have generally got the data we want
there, but notice the names aren’t that useful, and we have all the
ethnicity information which would be useful to have, but we’re going to
keep things simple and just keep the first 5 columns. We can ofcourse do
that with select. In this case, the names to use aren’t all that useful,
so we might instead use numbers:

imm_cleanish <- imm |> select(Milestone = 1, DHB = 2, Eligible = 3, Immunised = 4, Proportion = 5)
imm_cleanish

## # A tibble: 158 × 5
##    Milestone             DHB               Eligible Immunised Proportion
##    <chr>                 <chr>             <chr>        <dbl>      <dbl>
##  1 All Milstone Coverage <NA>              101628       81517      0.802
##  2 6 months              National Total    15151        11004      0.726
##  3 6 months              Auckland          1274           994      0.780
##  4 6 months              Bay of Plenty     834            539      0.646
##  5 6 months              Canterbury        1673          1400      0.837
##  6 6 months              Capital and Coast 821            647      0.788
##  7 6 months              Counties Manukau  2111          1438      0.681
##  8 6 months              Hawke's Bay       534            358      0.670
##  9 6 months              Hutt Valley       547            444      0.812
## 10 6 months              Lakes             398            251      0.631
## # ℹ 148 more rows
…
Yay! This is looking really nice now - we have 20 DHBs, each with 7
rows, and 7 milestones each with 20 DHBs. Looks great! One thing we note
though is the ‘Eligible’ column is of type chr (short for
character) instead of numbers. Let’s fix that:

imm_clean <- imm_cleaner |> mutate(Eligible = as.numeric(Eligible))
imm_clean

## # A tibble: 140 × 5
##    Milestone DHB                Eligible Immunised Proportion
##    <chr>     <chr>                 <dbl>     <dbl>      <dbl>
##  1 6 months  Auckland               1274       994      0.780
##  2 6 months  Bay of Plenty           834       539      0.646
##  3 6 months  Canterbury             1673      1400      0.837
##  4 6 months  Capital and Coast       821       647      0.788
##  5 6 months  Counties Manukau       2111      1438      0.681
##  6 6 months  Hawke's Bay             534       358      0.670
##  7 6 months  Hutt Valley             547       444      0.812
##  8 6 months  Lakes                   398       251      0.631
##  9 6 months  MidCentral              562       391      0.696
## 10 6 months  Nelson Marlborough      391       299      0.765
## # ℹ 130 more rows
…
